source,relation,target
Bernoulli distribution,analysis,Statistics
Discrete uniform distribution,analysis,Statistics
Normal distribution,analysis,Statistics
Student's t-distribution,analysis,Statistics
Statistics,interdependence,Data Science
Mathematics,interdependence,Data Science
Statistics,foundation,Mathematics
Business understanding,foundation,Data Science
Research,foundation,Data Science
Machine learning canvas,resource,Business understanding
CRISP-DM,resource,Business understanding
PICOC,technique,Research
